Sentiment Analysis of Kanye West Lyrics
…
There are 3 main lexicons for sentiment analysis bing, AFINN and
nrc.

get_sentiments('bing')

## # A tibble: 6,786 x 2
##    word        sentiment
##    <chr>       <chr>    
##  1 2-faces     negative 
##  2 abnormal    negative 
##  3 abolish     negative 
##  4 abominable  negative 
##  5 abominably  negative 
##  6 abominate   negative 
##  7 abomination negative 
##  8 abort       negative 
##  9 aborted     negative 
## 10 aborts      negative 
## # ... with 6,776 more rows

get_sentiments('nrc')

## # A tibble: 13,901 x 2
##    word        sentiment
##    <chr>       <chr>    
##  1 abacus      trust    
##  2 abandon     fear     
##  3 abandon     negative 
##  4 abandon     sadness  
##  5 abandoned   anger    
##  6 abandoned   fear     
##  7 abandoned   negative 
##  8 abandoned   sadness  
##  9 abandonment anger    
## 10 abandonment fear     
## # ... with 13,891 more rows

get_sentiments('afinn')

## # A tibble: 2,477 x 2
##    word       value
##    <chr>      <dbl>
##  1 abandon       -2
##  2 abandoned     -2
##  3 abandons      -2
##  4 abducted      -2
##  5 abduction     -2
##  6 abductions    -2
##  7 abhor         -3
##  8 abhorred      -3
##  9 abhorrent     -3
## 10 abhors        -3
## # ... with 2,467 more rows
…
This lead us to start to unpack another issue with sentiment analysis
which takes overall sentiment as a summation of sentiment of individual
words. The sentiment of So Appalled within context is a lot more nuanced
than the analysis implies, ridiculous is essentially being used
here as a way of exclaiming shock at the amount of money and fame the
rappers possess.

Another useful example of this lack of context is the song
Love Lockdown

## # A tibble: 101 x 6
##    track_n  line track_title   album             word   sentiment
##      <dbl> <int> <chr>         <chr>             <chr>  <chr>    
##  1       5     2 Love Lockdown 808s & Heartbreak loving positive 
##  2       5     3 Love Lockdown 808s & Heartbreak run    <NA>     
##  3       5     4 Love Lockdown 808s & Heartbreak love   positive 
##  4       5     4 Love Lockdown 808s & Heartbreak vibe   <NA>     
##  5       5     4 Love Lockdown 808s & Heartbreak wrong  negative 
##  6       5     5 Love Lockdown 808s & Heartbreak home   <NA>     
##  7       5     7 Love Lockdown 808s & Heartbreak til    <NA>     
##  8       5     7 Love Lockdown 808s & Heartbreak love   positive 
##  9       5     8 Love Lockdown 808s & Heartbreak til    <NA>     
## 10       5     8 Love Lockdown 808s & Heartbreak lose   negative 
## # ... with 91 more rows
…
